<?xml version="1.0" encoding="UTF-8" standalone="no"?>
<svg
   xmlns:dc="http://purl.org/dc/elements/1.1/"
   xmlns:cc="http://creativecommons.org/ns#"
   xmlns:rdf="http://www.w3.org/1999/02/22-rdf-syntax-ns#"
   xmlns:svg="http://www.w3.org/2000/svg"
   xmlns="http://www.w3.org/2000/svg"
   viewBox="0 0 452.81332 202.88"
   height="202.88"
   width="452.81332"
   xml:space="preserve"
   version="1.1"
   id="svg2"><metadata
     id="metadata8"><rdf:RDF><cc:Work
         rdf:about=""><dc:format>image/svg+xml</dc:format><dc:type
           rdf:resource="http://purl.org/dc/dcmitype/StillImage" /></cc:Work></rdf:RDF></metadata><defs
     id="defs6" /><g
     transform="matrix(1.3333333,0,0,-1.3333333,0,202.88)"
     id="g10"><g
       transform="scale(0.1)"
       id="g12"><path
         id="path14"
         style="fill:#00aaa4;fill-opacity:1;fill-rule:nonzero;stroke:none"
         d="M 126.438,62.2109 C 126.438,27.6641 97.7656,0.199219 63.2188,0.199219 28.6719,0.199219 0,27.6641 0,62.2109 c 0,34.5469 28.6719,62.0121 63.2188,62.0121 34.5468,0 63.2192,-27.4652 63.2192,-62.0121 z m -97.0747,0 c 0,-18.1367 15.1992,-35.0625 33.8555,-35.0625 18.6562,0 33.8554,16.9258 33.8554,35.0625 0,18.1368 -15.1992,35.0625 -33.8554,35.0625 -18.6563,0 -33.8555,-16.9257 -33.8555,-35.0625" /><path
         id="path16"
         style="fill:#00aaa4;fill-opacity:1;fill-rule:nonzero;stroke:none"
         d="m 210.414,121.457 c 23.492,0 46.469,-6.91 46.469,-31.0898 0,-11.4024 -6.223,-20.9024 -15.547,-24.875 l 0,-0.3438 c 10.707,-4.3203 19,-15.0273 19,-29.1914 0,-18.8281 -12.781,-32.99216 -43.012,-32.99216 l -40.418,0 0,118.49216 33.508,0 z m -4.144,-47.1562 7.429,0 c 9.328,0 13.817,4.8398 13.817,12.2656 0,8.9805 -7.946,11.5742 -14.856,11.5742 l -6.39,0 0,-23.8398 z m 0,-48.0156 7.773,0 c 8.984,0 16.93,2.4179 16.93,12.0898 0,11.0547 -8.293,12.6094 -17.274,12.6094 l -7.429,0 0,-24.6992" /><path
         id="path18"
         style="fill:#00aaa4;fill-opacity:1;fill-rule:nonzero;stroke:none"
         d="m 331.184,121.457 29.367,2.766 0,-79.6292 c 0,-26.7735 -14.512,-44.394581 -41.977,-44.394581 -3.625,0 -7.426,0 -10.879,1.210941 l -7.082,29.36324 c 3.973,-1.5546 8.461,-2.0703 12.782,-2.0703 14.679,0 17.789,7.5977 17.789,21.7617 l 0,70.9922" /><path
         id="path20"
         style="fill:#00aaa4;fill-opacity:1;fill-rule:nonzero;stroke:none"
         d="m 416.883,2.96484 0,118.49216 67.015,0 5.184,-25.0468 -42.836,0 0,-20.5547 30.57,0 0,-25.043 -30.57,0 0,-22.8008 46.465,0 -7.258,-25.04686 -68.57,0" /><path
         id="path22"
         style="fill:#00aaa4;fill-opacity:1;fill-rule:nonzero;stroke:none"
         d="m 621.262,88.8125 c -6.391,4.4883 -13.645,8.4609 -21.59,8.4609 -20.035,0 -34.199,-14.3359 -34.199,-34.7148 0,-20.5547 13.3,-35.4102 34.199,-35.4102 7.945,0 16.062,4.3164 22.281,8.8086 L 618.328,4.51953 c -4.84,-2.58984 -15.375,-4.320311 -20.73,-4.320311 -36.098,0 -61.489,24.874981 -61.489,61.667981 0,35.4062 25.391,62.3558 61.317,62.3558 6.562,0 13.472,-1.039 19.347,-3.801 l 4.489,-31.6095" /><path
         id="path24"
         style="fill:#00aaa4;fill-opacity:1;fill-rule:nonzero;stroke:none"
         d="m 664.305,94.5117 7.425,26.9453 80.84,0 0,-26.9453 -28.504,0 0,-90.16404 -29.363,-2.76563 0,92.92967 -30.398,0" /><path
         id="path26"
         style="fill:#00aaa4;fill-opacity:1;fill-rule:nonzero;stroke:none"
         d="m 2543.25,86.3789 c -7.6,6.9063 -17.62,10.8789 -27.81,10.8789 -20.56,0 -35.41,-14.6797 -35.41,-35.0625 0,-22.1094 17.1,-35.0625 37.65,-35.0625 4.5,0 13.48,0.8594 16.93,4.3164 l 0,17.1016 -30.75,0 8.47,25.043 51.64,0 0,-61.3165 c -11.92,-6.91011 -32.12,-12.093706 -50.09,-12.093706 -34.54,0 -63.22,27.464806 -63.22,62.011706 0,34.5469 28.68,62.0077 63.22,62.0077 17.45,0 34.2,-5.871 46.64,-16.578 l -17.27,-21.2461" /><path
         id="path28"
         style="fill:#00aaa4;fill-opacity:1;fill-rule:nonzero;stroke:none"
         d="m 2622.75,121.441 33.34,0 c 27.63,0 47.84,-9.671 47.84,-36.6207 0,-12.2617 -7.08,-25.5625 -19.17,-30.0547 l 31.95,-45.08201 -29.7,-9.499996 -34.55,55.964806 -0.35,0 0,-51.81637 -29.36,-2.76562 0,119.87459 z m 29.36,-58.2105 c 12.61,-0.8633 22.46,3.2812 22.46,17.2734 0,14.1641 -10.36,16.4102 -22.46,15.8906 l 0,-33.164" /><path
         id="path30"
         style="fill:#00aaa4;fill-opacity:1;fill-rule:nonzero;stroke:none"
         d="m 2887.75,62.1953 c 0,-34.5469 -28.67,-62.011706 -63.21,-62.011706 -34.55,0 -63.22,27.464806 -63.22,62.011706 0,34.5469 28.67,62.0077 63.22,62.0077 34.54,0 63.21,-27.4608 63.21,-62.0077 z m -97.07,0 c 0,-18.1367 15.2,-35.0625 33.86,-35.0625 18.65,0 33.85,16.9258 33.85,35.0625 0,18.1367 -15.2,35.0625 -33.85,35.0625 -18.66,0 -33.86,-16.9258 -33.86,-35.0625" /><path
         id="path32"
         style="fill:#00aaa4;fill-opacity:1;fill-rule:nonzero;stroke:none"
         d="m 3043.42,44.0586 c 0,-27.6367 -21.59,-43.875006 -51.3,-43.875006 -27.64,0 -46.98,12.957006 -46.98,41.800806 l 0,79.4566 29.36,2.762 0,-73.9257 c 0,-12.6093 3.62,-23.1445 18.31,-23.1445 19,0 21.24,13.2969 21.24,29.5352 l 0,64.773 29.37,2.762 0,-80.1444" /><path
         id="path34"
         style="fill:#00aaa4;fill-opacity:1;fill-rule:nonzero;stroke:none"
         d="m 3105.48,121.441 35.76,0 c 29.36,0 48.19,-8.808 48.19,-37.9996 0,-23.3203 -19.69,-37.6562 -44.22,-37.6562 l -10.36,0 0,-41.45317 -29.37,-2.76562 0,119.87459 z m 29.37,-50.609 8.46,0 c 10.89,0 16.76,4.6641 16.76,12.7813 0,8.1172 -5.87,12.7812 -16.76,12.7812 l -8.46,0 0,-25.5625" /><path
         id="path36"
         style="fill:#00aaa4;fill-opacity:1;fill-rule:nonzero;stroke:none"
         d="m 956.004,124.02 0.348,0 L 987.785,4.14453 958.25,0 l -10.191,57 -0.344,0 -31.09,-57 -0.348,0 -28.328,56.8281 -0.344,0 L 877.414,0 847.359,4.14453 879.832,124.02 l 0.344,0 37.308,-72.5473 38.52,72.5473" /><path
         id="path38"
         style="fill:#00aaa4;fill-opacity:1;fill-rule:nonzero;stroke:none"
         d="M 1082.82,124.02 1146.73,6.04688 1116.85,0 l -12.09,25.3906 -45.08,0 L 1047.76,0 l -28.5,6.04688 63.22,117.97312 0.34,0 z m -16.06,-76.6919 31.44,0 -15.72,29.0196 -15.72,-29.0196" /><path
         id="path40"
         style="fill:#00aaa4;fill-opacity:1;fill-rule:nonzero;stroke:none"
         d="m 1296.71,0 -77.55,67.7109 0,-63.56637 -29.37,-2.76172 0,122.63719 0.35,0 77.56,-66.3286 0,63.5666 29.36,2.762 0,-124.02 -0.35,0" /><path
         id="path42"
         style="fill:#00aaa4;fill-opacity:1;fill-rule:nonzero;stroke:none"
         d="M 1404.02,124.02 1467.93,6.04688 1438.05,0 l -12.09,25.3906 -45.08,0 L 1368.96,0 l -28.5,6.04688 63.22,117.97312 0.34,0 z m -16.06,-76.6919 31.44,0 -15.72,29.0196 -15.72,-29.0196" /><path
         id="path44"
         style="fill:#00aaa4;fill-opacity:1;fill-rule:nonzero;stroke:none"
         d="m 1598.92,86.1914 c -7.6,6.9102 -17.62,10.8828 -27.81,10.8828 -20.56,0 -35.41,-14.6836 -35.41,-35.0625 0,-22.1094 17.1,-35.0664 37.65,-35.0664 4.49,0 13.47,0.8633 16.93,4.3203 l 0,17.0977 -30.74,0 8.46,25.0469 51.64,0 0,-61.3204 C 1607.73,5.18359 1587.52,0 1569.55,0 c -34.54,0 -63.22,27.4648 -63.22,62.0117 0,34.543 28.68,62.0083 63.22,62.0083 17.45,0 34.2,-5.872 46.64,-16.582 l -17.27,-21.2466" /><path
         id="path46"
         style="fill:#00aaa4;fill-opacity:1;fill-rule:nonzero;stroke:none"
         d="m 1676.86,2.76562 0,118.49238 67.02,0 5.18,-25.0471 -42.83,0 0,-20.5547 30.57,0 0,-25.0468 -30.57,0 0,-22.8008 46.46,0 -7.25,-25.04298 -68.58,0" /><path
         id="path48"
         style="fill:#00aaa4;fill-opacity:1;fill-rule:nonzero;stroke:none"
         d="m 1900.42,124.02 0.35,0 L 1932.2,4.14453 1902.66,0 l -10.19,57 -0.34,0 -31.09,-57 -0.35,0 -28.33,56.8281 -0.34,0 L 1821.82,0 l -30.05,4.14453 32.48,119.87547 0.34,0 37.31,-72.5473 38.52,72.5473" /><path
         id="path50"
         style="fill:#00aaa4;fill-opacity:1;fill-rule:nonzero;stroke:none"
         d="m 1978.87,2.76562 0,118.49238 67.02,0 5.18,-25.0471 -42.84,0 0,-20.5547 30.58,0 0,-25.0468 -30.58,0 0,-22.8008 46.47,0 -7.25,-25.04298 -68.58,0" /><path
         id="path52"
         style="fill:#00aaa4;fill-opacity:1;fill-rule:nonzero;stroke:none"
         d="m 2212.27,0 -77.56,67.7109 0,-63.56637 -29.36,-2.76172 0,122.63719 0.35,0 77.55,-66.3286 0,63.5666 29.37,2.762 0,-124.02 -0.35,0" /><path
         id="path54"
         style="fill:#00aaa4;fill-opacity:1;fill-rule:nonzero;stroke:none"
         d="m 2260.16,94.3086 7.43,26.9494 80.84,0 0,-26.9494 -28.5,0 0,-90.16407 -29.37,-2.76172 0,92.92579 -30.4,0" /><path
         id="path56"
         style="fill:#00aaa4;fill-opacity:1;fill-rule:nonzero;stroke:none"
         d="m 806.457,738.84 117.348,27.094 0.121,66.738 -91.61,-21.149 c -6.504,-24.75 -15.105,-49.152 -25.859,-72.683" /><path
         id="path58"
         style="fill:#00aaa4;fill-opacity:1;fill-rule:nonzero;stroke:none"
         d="m 810.059,1104.01 114.41,26.42 0.113,61.6 -148.617,-34.31 c 13.164,-17.43 24.547,-35.48 34.094,-53.71" /><path
         id="path60"
         style="fill:#00aaa4;fill-opacity:1;fill-rule:nonzero;stroke:none"
         d="m 834.316,819.68 89.622,20.691 0.113,61.606 -78.578,-18.141 c -2.258,-21.359 -5.957,-42.852 -11.157,-64.156" /><path
         id="path62"
         style="fill:#00aaa4;fill-opacity:1;fill-rule:nonzero;stroke:none"
         d="m 711.902,1225.04 212.828,49.13 0.11,61.6 -149.613,-34.54 -68.52,-29.93 1.656,14.94 -64.433,-15.32 c 24.597,-13.07 47.328,-28.61 67.972,-45.88" /><path
         id="path64"
         style="fill:#00aaa4;fill-opacity:1;fill-rule:nonzero;stroke:none"
         d="m 840.148,1021.16 c 3.297,-16.78 5.571,-34.312 6.86,-52.301 l 77.199,17.821 0.109,61.61 -85.796,-19.81 c 0.554,-2.44 1.152,-4.9 1.628,-7.32" /><path
         id="path66"
         style="fill:#00aaa4;fill-opacity:1;fill-rule:nonzero;stroke:none"
         d="m 846.258,891.715 77.808,17.961 0.125,69.304 -76.687,-17.703 c 1.246,-22.644 0.867,-45.984 -1.246,-69.562" /><path
         id="path68"
         style="fill:#00aaa4;fill-opacity:1;fill-rule:nonzero;stroke:none"
         d="m 757.492,658.262 166.184,38.367 0.113,61.601 -121.445,-28.035 c -12.289,-25.347 -27.18,-49.554 -44.852,-71.933" /><path
         id="path70"
         style="fill:#00aaa4;fill-opacity:1;fill-rule:nonzero;stroke:none"
         d="m 770.883,1164.24 153.711,35.49 0.121,66.74 -205.746,-47.5 c 19.328,-16.95 36.687,-35.4 51.914,-54.73" /><path
         id="path72"
         style="fill:#00aaa4;fill-opacity:1;fill-rule:nonzero;stroke:none"
         d="m 667.992,577.855 255.578,59.735 0.09,51.336 -173.953,-40.16 c -22.871,-27.039 -49.953,-51.157 -81.715,-70.911" /><path
         id="path74"
         style="fill:#00aaa4;fill-opacity:1;fill-rule:nonzero;stroke:none"
         d="M 924.996,1420.48 474.145,1313.83 c 58.566,-0.16 112.16,-14.38 159.351,-37.62 l 75.961,17.54 2.813,13.47 48.003,-1.74 164.582,37.99 0.141,77.01" /><path
         id="path76"
         style="fill:#00aaa4;fill-opacity:1;fill-rule:nonzero;stroke:none"
         d="m 836.781,1035.77 87.551,20.22 0.121,66.73 -110.816,-25.58 c 10.199,-20.53 17.957,-41.21 23.144,-61.37" /><path
         id="path78"
         style="fill:#00aaa4;fill-opacity:1;fill-rule:nonzero;stroke:none"
         d="M 631.918,911.504 331.137,842.016 c 8.886,-22.5 22.238,-43.157 36.945,-60.7 l 249.094,57.508 c 9.418,23.145 14.304,48.102 14.742,72.68" /><path
         id="path80"
         style="fill:#00aaa4;fill-opacity:1;fill-rule:nonzero;stroke:none"
         d="m 627.855,954.82 c -1.773,8 -4.199,15.782 -6.933,23.422 L 316.418,907.941 c 0.488,-9.527 1.113,-18.961 2.551,-27.484 1.781,-10.547 5.117,-20.602 8.898,-30.914 l 304.11,69.672 c -0.262,12.109 -1.563,24.074 -4.122,35.605" /><path
         id="path82"
         style="fill:#00aaa4;fill-opacity:1;fill-rule:nonzero;stroke:none"
         d="m 480.965,1089.61 -80.074,-18.48 c -31.309,-17.59 -53.727,-45.94 -67.606,-77.189 l 241.488,55.749 c -25.082,23.42 -57.179,38.33 -93.808,39.92" /><path
         id="path84"
         style="fill:#00aaa4;fill-opacity:1;fill-rule:nonzero;stroke:none"
         d="M 581,1043.43 329.586,985.391 c -9.016,-23.2 -13.305,-47.446 -13.223,-69.762 l 302.012,69.723 C 609.582,1007.2 596.828,1026.99 581,1043.43" /><path
         id="path86"
         style="fill:#00aaa4;fill-opacity:1;fill-rule:nonzero;stroke:none"
         d="M 613.23,830.219 373.727,774.926 c 22.488,-24.078 51.832,-39.957 89.648,-40.883 l 77.738,17.945 c 32.684,17.168 56.899,45.481 72.117,78.231" /><path
         id="path88"
         style="fill:#00aaa4;fill-opacity:1;fill-rule:nonzero;stroke:none"
         d="m 216.426,594.926 -193.6604,-44.711 0.0352,-61.57 265.7852,61.363 c -26.621,12.058 -50.676,27.234 -72.16,44.918" /><path
         id="path90"
         style="fill:#00aaa4;fill-opacity:1;fill-rule:nonzero;stroke:none"
         d="m 92.6953,802.41 c -3.8789,16.793 -6.5,34.219 -8.0195,52.031 L 22.5977,840.109 22.6328,778.539 94.5,795.133 c -0.6055,2.426 -1.2422,4.84 -1.8047,7.277" /><path
         id="path92"
         style="fill:#00aaa4;fill-opacity:1;fill-rule:nonzero;stroke:none"
         d="m 125.508,1081.96 -103.0353,-23.79 0.039,-66.701 76.8555,17.741 c 6.6838,24.74 15.3628,49.15 26.1408,72.75" /><path
         id="path94"
         style="fill:#00aaa4;fill-opacity:1;fill-rule:nonzero;stroke:none"
         d="m 172.906,1162.18 -150.4724,-34.74 0.0352,-61.57 107.1722,24.74 c 12.093,25.08 26.523,49.13 43.265,71.57" /><path
         id="path96"
         style="fill:#00aaa4;fill-opacity:1;fill-rule:nonzero;stroke:none"
         d="m 302.453,1273.21 -280.0624,-66.25 0.0391,-71.83 157.5503,36.38 c 32.727,41.36 73.61,76.64 122.473,101.7" /><path
         id="path98"
         style="fill:#00aaa4;fill-opacity:1;fill-rule:nonzero;stroke:none"
         d="m 97.1875,1001.01 -74.6719,-17.237 0.0352,-61.57 63.1914,14.59 c 2.293,21.391 6.0898,42.898 11.4453,64.217" /><path
         id="path100"
         style="fill:#00aaa4;fill-opacity:1;fill-rule:nonzero;stroke:none"
         d="m 122.445,716.914 -99.7614,-23.035 0.0352,-61.57 131.2612,30.304 c -12.023,17.149 -22.5,35.36 -31.535,54.301" /><path
         id="path102"
         style="fill:#00aaa4;fill-opacity:1;fill-rule:nonzero;stroke:none"
         d="m 158.781,656.023 -136.0583,-31.41 0.039,-66.699 186.4493,43.043 c -18.934,16.516 -35.707,35.055 -50.43,55.066" /><path
         id="path104"
         style="fill:#00aaa4;fill-opacity:1;fill-rule:nonzero;stroke:none"
         d="m 84.9492,928.91 -62.3945,-14.402 0.0391,-66.703 61.4921,14.199 c -1.4492,21.871 -1.1601,44.293 0.8633,66.906" /><path
         id="path106"
         style="fill:#00aaa4;fill-opacity:1;fill-rule:nonzero;stroke:none"
         d="m 96.3398,787.855 -73.6992,-17.011 0.0391,-69.266 96.4843,22.274 c -9.348,20.617 -16.953,42.07 -22.8242,64.003" /><path
         id="path108"
         style="fill:#00aaa4;fill-opacity:1;fill-rule:nonzero;stroke:none"
         d="M 22.8359,427.074 417.516,519.316 C 374.215,521.727 335.156,530.773 300.238,545 L 22.8047,480.949 22.8359,427.074" /><path
         id="path110"
         style="fill:#00aaa4;fill-opacity:1;fill-rule:nonzero;stroke:none"
         d="m 643.93,1270.92 c -3.434,1.82 -6.926,3.56 -10.434,5.29 L 179.98,1171.51 c -2.425,-3.06 -4.742,-6.21 -7.074,-9.33 l 471.024,108.74" /><path
         id="path112"
         style="fill:#00aaa4;fill-opacity:1;fill-rule:nonzero;stroke:none"
         d="M 711.902,1225.04 129.641,1090.61 c -1.387,-2.88 -2.805,-5.75 -4.133,-8.65 l 593.461,137.01 c -2.332,2.04 -4.684,4.07 -7.067,6.07" /><path
         id="path114"
         style="fill:#00aaa4;fill-opacity:1;fill-rule:nonzero;stroke:none"
         d="m 437.379,1079.43 c 15.269,3.67 27.551,5.59 43.586,10.18 l 295,68.11 c -1.653,2.19 -3.371,4.35 -5.082,6.52 L 99.3672,1009.21 c -0.7383,-2.73 -1.4922,-5.46 -2.1797,-8.2 l 303.7035,70.12 c 10.589,1.03 23.336,5.14 36.488,8.3" /><path
         id="path116"
         style="fill:#00aaa4;fill-opacity:1;fill-rule:nonzero;stroke:none"
         d="m 581,1043.43 232.637,53.71 c -1.141,2.29 -2.379,4.58 -3.578,6.87 l -235.286,-54.32 c 2.149,-2 4.184,-4.14 6.227,-6.26" /><path
         id="path118"
         style="fill:#00aaa4;fill-opacity:1;fill-rule:nonzero;stroke:none"
         d="M 333.285,993.941 85.7422,936.793 c -0.2774,-2.629 -0.5586,-5.258 -0.793,-7.883 l 244.6368,56.481 c 1.117,2.882 2.437,5.707 3.699,8.55" /><path
         id="path120"
         style="fill:#00aaa4;fill-opacity:1;fill-rule:nonzero;stroke:none"
         d="m 620.922,978.242 217.598,50.238 c -0.555,2.43 -1.11,4.85 -1.739,7.29 L 618.375,985.352 c 0.937,-2.329 1.699,-4.739 2.547,-7.11" /><path
         id="path122"
         style="fill:#00aaa4;fill-opacity:1;fill-rule:nonzero;stroke:none"
         d="M 316.363,915.629 84.0859,862.004 c 0.168,-2.531 0.375,-5.047 0.5899,-7.563 l 231.7422,53.5 c -0.129,2.508 -0.047,5.118 -0.055,7.688" /><path
         id="path124"
         style="fill:#00aaa4;fill-opacity:1;fill-rule:nonzero;stroke:none"
         d="M 327.867,849.543 94.5,795.133 c 0.6055,-2.43 1.1914,-4.86 1.8398,-7.278 l 234.7972,54.161 c -0.93,2.343 -2.399,5.156 -3.27,7.527" /><path
         id="path126"
         style="fill:#00aaa4;fill-opacity:1;fill-rule:nonzero;stroke:none"
         d="m 631.918,911.504 215.586,49.773 c -0.145,2.539 -0.316,5.063 -0.496,7.582 L 631.977,919.215 c 0.054,-2.563 -0.012,-5.137 -0.059,-7.711" /><path
         id="path128"
         style="fill:#00aaa4;fill-opacity:1;fill-rule:nonzero;stroke:none"
         d="M 368.082,781.316 119.164,723.852 c 1.055,-2.332 2.18,-4.629 3.281,-6.938 l 251.282,58.012 c -1.934,2.07 -3.809,4.207 -5.645,6.39" /><path
         id="path130"
         style="fill:#00aaa4;fill-opacity:1;fill-rule:nonzero;stroke:none"
         d="m 613.23,830.219 232.243,53.617 c 0.281,2.629 0.55,5.254 0.785,7.879 L 617.176,838.824 c -1.192,-2.926 -2.614,-5.742 -3.946,-8.605" /><path
         id="path132"
         style="fill:#00aaa4;fill-opacity:1;fill-rule:nonzero;stroke:none"
         d="M 834.316,819.68 541.113,751.988 c -13.277,-2.527 -26.199,-5.144 -39.16,-8.136 -14.965,-3.454 -25.883,-5.606 -38.578,-9.809 L 153.98,662.613 c 1.563,-2.222 3.192,-4.398 4.801,-6.59 l 673.535,155.5 c 0.715,2.711 1.336,5.438 2,8.157" /><path
         id="path134"
         style="fill:#00aaa4;fill-opacity:1;fill-rule:nonzero;stroke:none"
         d="M 806.457,738.84 209.211,600.957 c 2.355,-2.059 4.793,-4.039 7.215,-6.031 l 585.918,135.269 c 1.39,2.871 2.785,5.743 4.113,8.645" /><path
         id="path136"
         style="fill:#00aaa4;fill-opacity:1;fill-rule:nonzero;stroke:none"
         d="m 288.586,550.008 c 3.828,-1.738 7.715,-3.406 11.652,-5.008 l 449.469,103.766 c 2.645,3.129 5.25,6.289 7.785,9.496 L 288.586,550.008" /><path
         id="path138"
         style="fill:#00aaa4;fill-opacity:1;fill-rule:nonzero;stroke:none"
         d="m 1642.44,1234.6 14.3,64.88 -137.25,-31.68 15.64,-57.97 107.31,24.77" /><path
         id="path140"
         style="fill:#00aaa4;fill-opacity:1;fill-rule:nonzero;stroke:none"
         d="m 1573.59,1067.32 16.94,-62.79 1.25,0.29 15.49,70.29 -33.68,-7.79" /><path
         id="path142"
         style="fill:#00aaa4;fill-opacity:1;fill-rule:nonzero;stroke:none"
         d="m 1675.21,1383.29 -175.92,-40.62 18.24,-67.63 141,32.55 16.68,75.7" /><path
         id="path144"
         style="fill:#00aaa4;fill-opacity:1;fill-rule:nonzero;stroke:none"
         d="m 1640.65,1226.49 -103.56,-23.91 16.94,-62.79 71.12,16.41 15.5,70.29" /><path
         id="path146"
         style="fill:#00aaa4;fill-opacity:1;fill-rule:nonzero;stroke:none"
         d="m 1623.37,1148.09 -67.38,-15.55 15.64,-57.97 37.43,8.64 14.31,64.88" /><path
         id="path148"
         style="fill:#00aaa4;fill-opacity:1;fill-rule:nonzero;stroke:none"
         d="m 1939.63,1085.12 116.95,27 -0.28,66.65 -131.86,-30.44 15.19,-63.21" /><path
         id="path150"
         style="fill:#00aaa4;fill-opacity:1;fill-rule:nonzero;stroke:none"
         d="m 1922.69,1155.62 133.58,30.84 -0.25,61.52 -147.35,-34.02 14.02,-58.34" /><path
         id="path152"
         style="fill:#00aaa4;fill-opacity:1;fill-rule:nonzero;stroke:none"
         d="m 1955.41,1019.49 101.45,23.42 -0.25,61.52 -115.22,-26.6 14.02,-58.34" /><path
         id="path154"
         style="fill:#00aaa4;fill-opacity:1;fill-rule:nonzero;stroke:none"
         d="m 1972.93,946.562 84.25,19.45 -0.29,69.208 -99.73,-23.02 15.77,-65.638" /><path
         id="path156"
         style="fill:#00aaa4;fill-opacity:1;fill-rule:nonzero;stroke:none"
         d="m 1988.71,880.93 68.75,15.871 -0.25,61.519 -82.52,-19.05 14.02,-58.34" /><path
         id="path158"
         style="fill:#00aaa4;fill-opacity:1;fill-rule:nonzero;stroke:none"
         d="m 2005.65,810.434 52.12,12.031 -0.27,66.648 -67.04,-15.476 15.19,-63.203" /><path
         id="path160"
         style="fill:#00aaa4;fill-opacity:1;fill-rule:nonzero;stroke:none"
         d="m 1906.91,1221.25 149.08,34.42 -0.28,66.65 -163.99,-37.86 15.19,-63.21" /><path
         id="path162"
         style="fill:#00aaa4;fill-opacity:1;fill-rule:nonzero;stroke:none"
         d="m 2021.43,744.801 36.62,8.457 -0.25,61.519 -50.39,-11.636 14.02,-58.34" /><path
         id="path164"
         style="fill:#00aaa4;fill-opacity:1;fill-rule:nonzero;stroke:none"
         d="m 2055.1,1470.99 -197.26,-45.54 16.36,-68.07 181.2,41.83 -0.3,71.78" /><path
         id="path166"
         style="fill:#00aaa4;fill-opacity:1;fill-rule:nonzero;stroke:none"
         d="m 2038.37,674.305 19.99,4.613 -0.27,66.648 -34.91,-8.058 15.19,-63.203" /><path
         id="path168"
         style="fill:#00aaa4;fill-opacity:1;fill-rule:nonzero;stroke:none"
         d="m 1889.97,1291.75 165.71,38.26 -0.25,61.52 -179.48,-41.44 14.02,-58.34" /><path
         id="path170"
         style="fill:#00aaa4;fill-opacity:1;fill-rule:nonzero;stroke:none"
         d="m 1426.11,532.953 129.2,29.828 -20.81,61.907 -94.57,-21.836 -13.82,-69.899" /><path
         id="path172"
         style="fill:#00aaa4;fill-opacity:1;fill-rule:nonzero;stroke:none"
         d="m 1454.27,675.441 -12.75,-64.523 90.57,20.91 -19.21,57.145 -58.61,-13.532" /><path
         id="path174"
         style="fill:#00aaa4;fill-opacity:1;fill-rule:nonzero;stroke:none"
         d="m 1489.66,758.02 -19.98,-4.614 -13.82,-69.898 54.62,12.605 -20.82,61.907" /><path
         id="path176"
         style="fill:#00aaa4;fill-opacity:1;fill-rule:nonzero;stroke:none"
         d="m 1477.65,793.73 -6.38,-32.261 15.99,3.691 -9.61,28.57" /><path
         id="path178"
         style="fill:#00aaa4;fill-opacity:1;fill-rule:nonzero;stroke:none"
         d="m 1710.41,734.574 -14.64,-64.961 90.19,20.825 -15.86,57.917 -59.69,-13.781" /><path
         id="path180"
         style="fill:#00aaa4;fill-opacity:1;fill-rule:nonzero;stroke:none"
         d="m 1678.07,591.121 127.05,29.332 -17.18,62.746 -94.01,-21.703 -15.86,-70.375" /><path
         id="path182"
         style="fill:#00aaa4;fill-opacity:1;fill-rule:nonzero;stroke:none"
         d="m 1739.04,861.777 -0.06,-0.5 -9.04,-40.089 19.01,4.39 -9.91,36.199" /><path
         id="path184"
         style="fill:#00aaa4;fill-opacity:1;fill-rule:nonzero;stroke:none"
         d="m 1712.24,742.695 55.88,12.899 -17.18,62.746 -22.83,-5.27 -15.87,-70.375" /><path
         id="path186"
         style="fill:#00aaa4;fill-opacity:1;fill-rule:nonzero;stroke:none"
         d="m 1243.8,916.781 -105.36,-24.32 -0.12,-61.609 93.94,21.687 11.54,64.242" /><path
         id="path188"
         style="fill:#00aaa4;fill-opacity:1;fill-rule:nonzero;stroke:none"
         d="m 1230.82,844.512 -92.52,-21.36 -0.14,-69.308 79.68,18.394 12.98,72.274" /><path
         id="path190"
         style="fill:#00aaa4;fill-opacity:1;fill-rule:nonzero;stroke:none"
         d="m 1203.43,691.938 -65.43,-15.106 -0.13,-66.738 53.06,12.25 12.5,69.594" /><path
         id="path192"
         style="fill:#00aaa4;fill-opacity:1;fill-rule:nonzero;stroke:none"
         d="m 1137.58,466.34 26.44,6.105 12.5,69.598 -38.81,-8.961 -0.13,-66.742" /><path
         id="path194"
         style="fill:#00aaa4;fill-opacity:1;fill-rule:nonzero;stroke:none"
         d="m 1216.4,764.207 -78.26,-18.066 -0.12,-61.606 66.85,15.434 11.53,64.238" /><path
         id="path196"
         style="fill:#00aaa4;fill-opacity:1;fill-rule:nonzero;stroke:none"
         d="m 1189.49,614.312 -51.63,-11.921 -0.13,-61.61 40.23,9.289 11.53,64.242" /><path
         id="path198"
         style="fill:#00aaa4;fill-opacity:1;fill-rule:nonzero;stroke:none"
         d="m 1312.52,1299.55 -173.33,-40.01 -0.15,-71.88 160.02,36.94 13.46,74.95" /><path
         id="path200"
         style="fill:#00aaa4;fill-opacity:1;fill-rule:nonzero;stroke:none"
         d="m 1257.73,994.406 -119.14,-27.504 -0.13,-66.742 106.78,24.652 12.49,69.594" /><path
         id="path202"
         style="fill:#00aaa4;fill-opacity:1;fill-rule:nonzero;stroke:none"
         d="m 1297.62,1216.57 -158.59,-36.61 -0.13,-61.61 147.19,33.98 11.53,64.24" /><path
         id="path204"
         style="fill:#00aaa4;fill-opacity:1;fill-rule:nonzero;stroke:none"
         d="m 1270.71,1066.68 -131.98,-30.47 -0.12,-61.608 120.56,27.838 11.54,64.24" /><path
         id="path206"
         style="fill:#00aaa4;fill-opacity:1;fill-rule:nonzero;stroke:none"
         d="m 1284.64,1144.3 -145.75,-33.65 -0.14,-66.74 133.4,30.8 12.49,69.59" /><path
         id="path208"
         style="fill:#00aaa4;fill-opacity:1;fill-rule:nonzero;stroke:none"
         d="m 1875.95,1350.09 -1.75,7.29 -215.67,-49.79 -1.79,-8.11 219.21,50.61" /><path
         id="path210"
         style="fill:#00aaa4;fill-opacity:1;fill-rule:nonzero;stroke:none"
         d="m 1519.49,1267.8 -1.96,7.24 -218.47,-50.44 -1.44,-8.03 221.87,51.23" /><path
         id="path212"
         style="fill:#00aaa4;fill-opacity:1;fill-rule:nonzero;stroke:none"
         d="m 1535.13,1209.83 -249.04,-57.5 -1.45,-8.03 252.45,58.28 -1.96,7.25" /><path
         id="path214"
         style="fill:#00aaa4;fill-opacity:1;fill-rule:nonzero;stroke:none"
         d="m 1640.65,1226.49 251.07,57.97 -1.75,7.29 -247.53,-57.15 -1.79,-8.11" /><path
         id="path216"
         style="fill:#00aaa4;fill-opacity:1;fill-rule:nonzero;stroke:none"
         d="m 1554.03,1139.79 -281.88,-65.08 -1.44,-8.03 285.28,65.86 -1.96,7.25" /><path
         id="path218"
         style="fill:#00aaa4;fill-opacity:1;fill-rule:nonzero;stroke:none"
         d="m 1623.37,1148.09 285.3,65.87 -1.76,7.29 -281.76,-65.05 -1.78,-8.11" /><path
         id="path220"
         style="fill:#00aaa4;fill-opacity:1;fill-rule:nonzero;stroke:none"
         d="m 1571.63,1074.57 -312.46,-72.13 -1.44,-8.034 315.86,72.914 -1.96,7.25" /><path
         id="path222"
         style="fill:#00aaa4;fill-opacity:1;fill-rule:nonzero;stroke:none"
         d="m 1607.27,1075.11 317.17,73.22 -1.75,7.29 -313.63,-72.41 -1.79,-8.1" /><path
         id="path224"
         style="fill:#00aaa4;fill-opacity:1;fill-rule:nonzero;stroke:none"
         d="m 1939.63,1085.12 -347.85,-80.3 -0.6,-2.71 -0.65,2.42 -345.29,-79.718 -1.44,-8.031 697.59,161.049 -1.76,7.29" /><path
         id="path226"
         style="fill:#00aaa4;fill-opacity:1;fill-rule:nonzero;stroke:none"
         d="m 1955.41,1019.49 -723.15,-166.951 -1.44,-8.027 726.34,167.688 -1.75,7.29" /><path
         id="path228"
         style="fill:#00aaa4;fill-opacity:1;fill-rule:nonzero;stroke:none"
         d="m 1972.93,946.562 -755.09,-174.324 -1.44,-8.031 758.29,175.063 -1.76,7.292" /><path
         id="path230"
         style="fill:#00aaa4;fill-opacity:1;fill-rule:nonzero;stroke:none"
         d="m 1750.94,818.34 239.52,55.297 -1.75,7.293 -239.76,-55.352 1.99,-7.238" /><path
         id="path232"
         style="fill:#00aaa4;fill-opacity:1;fill-rule:nonzero;stroke:none"
         d="m 1471.27,761.469 -266.4,-61.5 -1.44,-8.031 266.25,61.468 1.59,8.063" /><path
         id="path234"
         style="fill:#00aaa4;fill-opacity:1;fill-rule:nonzero;stroke:none"
         d="m 1728.11,813.07 1.83,8.118 -242.68,-56.028 2.4,-7.14 238.45,55.05" /><path
         id="path236"
         style="fill:#00aaa4;fill-opacity:1;fill-rule:nonzero;stroke:none"
         d="m 1510.48,696.113 2.4,-7.14 197.53,45.601 1.83,8.121 -201.76,-46.582" /><path
         id="path238"
         style="fill:#00aaa4;fill-opacity:1;fill-rule:nonzero;stroke:none"
         d="m 1770.1,748.355 237.31,54.786 -1.76,7.293 -237.53,-54.84 1.98,-7.239" /><path
         id="path240"
         style="fill:#00aaa4;fill-opacity:1;fill-rule:nonzero;stroke:none"
         d="m 1455.86,683.508 -264.93,-61.164 -1.44,-8.032 264.78,61.129 1.59,8.067" /><path
         id="path242"
         style="fill:#00aaa4;fill-opacity:1;fill-rule:nonzero;stroke:none"
         d="m 1785.96,690.438 1.98,-7.239 235.24,54.309 -1.75,7.293 -235.47,-54.363" /><path
         id="path244"
         style="fill:#00aaa4;fill-opacity:1;fill-rule:nonzero;stroke:none"
         d="m 1177.96,550.07 -1.44,-8.027 263.41,60.809 1.59,8.066 -263.56,-60.848" /><path
         id="path246"
         style="fill:#00aaa4;fill-opacity:1;fill-rule:nonzero;stroke:none"
         d="m 1532.09,631.828 2.41,-7.14 159.43,36.808 1.84,8.117 -163.68,-37.785" /><path
         id="path248"
         style="fill:#00aaa4;fill-opacity:1;fill-rule:nonzero;stroke:none"
         d="m 2099.77,721.836 -6.18,-39.914 83.75,37.297 -77.57,2.617" /><path
         id="path250"
         style="fill:#00aaa4;fill-opacity:1;fill-rule:nonzero;stroke:none"
         d="m 1734.65,1197.52 -6.18,-39.91 83.76,37.29 -77.58,2.62" /><path
         id="path252"
         style="fill:#00aaa4;fill-opacity:1;fill-rule:nonzero;stroke:none"
         d="m 1573.63,803.062 -6.18,-39.914 83.76,37.297 -77.58,2.617" /><path
         id="path254"
         style="fill:#00aaa4;fill-opacity:1;fill-rule:nonzero;stroke:none"
         d="m 3099.48,996.254 99.32,22.926 -0.28,69.21 -98.9,-22.83 -0.14,-69.306" /><path
         id="path256"
         style="fill:#00aaa4;fill-opacity:1;fill-rule:nonzero;stroke:none"
         d="m 3099.63,1073.26 98.85,22.82 -0.25,61.52 -98.48,-22.73 -0.12,-61.61" /><path
         id="path258"
         style="fill:#00aaa4;fill-opacity:1;fill-rule:nonzero;stroke:none"
         d="m 3099.36,926.945 99.73,23.028 -0.26,61.517 -99.36,-22.935 -0.11,-61.61" /><path
         id="path260"
         style="fill:#00aaa4;fill-opacity:1;fill-rule:nonzero;stroke:none"
         d="m 3196.73,1521.59 -435.22,-100.47 c 63.08,1.79 129.79,-7.02 188.88,-25.67 l 131.17,30.28 1.78,12.71 43.13,-2.34 70.55,16.29 -0.29,69.2" /><path
         id="path262"
         style="fill:#00aaa4;fill-opacity:1;fill-rule:nonzero;stroke:none"
         d="m 2746.07,1053.21 -177.89,-41.07 c -0.53,-16.843 1.06,-34.413 5.27,-52.66 0.57,-2.46 1.19,-4.871 1.81,-7.281 l 169.42,39.113 1.39,61.898" /><path
         id="path264"
         style="fill:#00aaa4;fill-opacity:1;fill-rule:nonzero;stroke:none"
         d="m 2827.74,836.02 c 17.94,4.14 44.26,12.218 67.5,36.109 l -193.98,-44.785 c 33.87,-5.446 75.51,-3.094 126.48,8.676" /><path
         id="path266"
         style="fill:#00aaa4;fill-opacity:1;fill-rule:nonzero;stroke:none"
         d="m 2568.54,1019.93 177.7,41.02 0.35,15.47 353.2,81.55 -0.02,-15.4 98.43,22.72 -0.27,66.65 -479.78,-110.76 -68.49,-30.57 1.44,15.09 -62.86,-14.52 c -10.81,-21.72 -17.84,-45.57 -19.7,-71.25" /><path
         id="path268"
         style="fill:#00aaa4;fill-opacity:1;fill-rule:nonzero;stroke:none"
         d="m 2906.25,884.934 0.25,59.07 -294.79,-68.059 c 17.74,-21.308 41.28,-36.804 72.18,-44.914 l 219.69,50.715 c 0.88,1.109 1.81,2.024 2.67,3.188" /><path
         id="path270"
         style="fill:#00aaa4;fill-opacity:1;fill-rule:nonzero;stroke:none"
         d="m 2906.62,972.254 -163.21,-37.68 1.1,49 -167.28,-38.617 c 6.81,-23.805 16.35,-44.887 29.37,-62.496 l 299.93,69.246 0.09,20.547" /><path
         id="path272"
         style="fill:#00aaa4;fill-opacity:1;fill-rule:nonzero;stroke:none"
         d="m 3099.21,852.508 100.18,23.129 -0.27,66.644 -99.78,-23.035 -0.13,-66.738" /><path
         id="path274"
         style="fill:#00aaa4;fill-opacity:1;fill-rule:nonzero;stroke:none"
         d="m 2759.5,1220.52 c -25.56,-5.9 -71.37,-24.97 -94.25,-42.28 l 205.19,47.37 c -29.81,4.94 -83.03,1.35 -110.94,-5.09" /><path
         id="path276"
         style="fill:#00aaa4;fill-opacity:1;fill-rule:nonzero;stroke:none"
         d="m 3099.08,783.199 0,0 100.6,23.227 -0.26,61.519 -100.22,-23.14 -0.12,-61.606" /><path
         id="path278"
         style="fill:#00aaa4;fill-opacity:1;fill-rule:nonzero;stroke:none"
         d="m 2921.21,1209.11 c -14.88,8.18 -32.26,13.48 -50.77,16.5 l -205.19,-47.37 c -29.33,-20.5 -54.84,-46.97 -72.38,-78.29 l 59.58,13.75 2.77,12.83 47.3,-1.26 495.37,114.36 -0.25,61.52 -220.38,-50.88 -56.05,-41.16" /><path
         id="path280"
         style="fill:#00aaa4;fill-opacity:1;fill-rule:nonzero;stroke:none"
         d="m 2959.45,673.992 240.54,55.531 -0.28,69.211 -111.76,-25.8 c -52.99,-48.836 -92.04,-78.774 -128.5,-98.942" /><path
         id="path282"
         style="fill:#00aaa4;fill-opacity:1;fill-rule:nonzero;stroke:none"
         d="m 3049.39,1349.03 147.91,34.15 -0.25,61.52 -42.98,-9.93 -75.8,-33.53 1.21,16.31 -115.38,-26.64 c 31.62,-11.04 60.69,-25 85.29,-41.88" /><path
         id="path284"
         style="fill:#00aaa4;fill-opacity:1;fill-rule:nonzero;stroke:none"
         d="m 3079.17,1325.11 -86.62,-63.61 205.06,47.34 -0.28,66.64 -139.96,-32.31 c 7.74,-5.74 15.13,-11.7 21.8,-18.06" /><path
         id="path286"
         style="fill:#00aaa4;fill-opacity:1;fill-rule:nonzero;stroke:none"
         d="m 2392.98,1189.79 -112.46,-25.97 -0.13,-66.74 81.82,18.89 c 8.02,24.26 18.18,49.16 30.77,73.82" /><path
         id="path288"
         style="fill:#00aaa4;fill-opacity:1;fill-rule:nonzero;stroke:none"
         d="m 2345.18,891.387 -65.24,-15.063 -0.14,-69.308 80.61,18.609 c -6.18,20.359 -11.32,42.199 -15.23,65.762" /><path
         id="path290"
         style="fill:#00aaa4;fill-opacity:1;fill-rule:nonzero;stroke:none"
         d="m 2362.64,818.441 -82.86,-19.129 -0.12,-61.605 105.91,24.453 c -8.72,17.18 -16.38,35.934 -22.93,56.281" /><path
         id="path292"
         style="fill:#00aaa4;fill-opacity:1;fill-rule:nonzero;stroke:none"
         d="m 2337.54,958.895 -57.46,-13.262 -0.13,-61.61 64.13,14.805 c -2.92,19.008 -5.16,38.953 -6.54,60.067" /><path
         id="path294"
         style="fill:#00aaa4;fill-opacity:1;fill-rule:nonzero;stroke:none"
         d="m 2342.21,1034.38 -61.98,-14.31 -0.14,-66.738 57.11,13.184 c -0.59,18.886 0.91,42.054 5.01,67.864" /><path
         id="path296"
         style="fill:#00aaa4;fill-opacity:1;fill-rule:nonzero;stroke:none"
         d="m 2359.49,1107.65 -79.12,-18.27 -0.12,-61.61 63.3,14.62 c 3.62,20.54 8.83,42.53 15.94,65.26" /><path
         id="path298"
         style="fill:#00aaa4;fill-opacity:1;fill-rule:nonzero;stroke:none"
         d="m 2389.2,755.301 -109.56,-25.297 -0.14,-66.738 149.61,34.535 c -14.94,16.66 -28.26,35.836 -39.91,57.5" /><path
         id="path300"
         style="fill:#00aaa4;fill-opacity:1;fill-rule:nonzero;stroke:none"
         d="m 2435.08,691.484 -155.59,-35.922 -0.13,-61.605 217,50.094 c -22.45,12.515 -42.95,28.277 -61.28,47.433" /><path
         id="path302"
         style="fill:#00aaa4;fill-opacity:1;fill-rule:nonzero;stroke:none"
         d="m 2581.31,1379.52 -300.49,-69.38 -0.14,-69.31 172.97,39.94 c 33.54,39.01 75.51,73.62 127.66,98.75" /><path
         id="path304"
         style="fill:#00aaa4;fill-opacity:1;fill-rule:nonzero;stroke:none"
         d="m 2279.21,516.945 382.23,88.246 c -57.37,0.192 -109.71,10.789 -154.9,33.516 l -227.19,-52.453 -0.14,-69.309" /><path
         id="path306"
         style="fill:#00aaa4;fill-opacity:1;fill-rule:nonzero;stroke:none"
         d="m 2445.61,1271.21 -164.95,-38.08 -0.12,-61.61 116.98,27.01 c 13.37,24.96 29.32,49.5 48.09,72.68" /><path
         id="path308"
         style="fill:#00aaa4;fill-opacity:1;fill-rule:nonzero;stroke:none"
         d="m 2964.1,1390.91 c -4.52,1.59 -9.1,3.08 -13.71,4.54 l -496.74,-114.68 c -2.72,-3.17 -5.43,-6.34 -8.04,-9.56 l 518.49,119.7" /><path
         id="path310"
         style="fill:#00aaa4;fill-opacity:1;fill-rule:nonzero;stroke:none"
         d="m 3049.39,1349.03 -651.87,-150.5 c -1.56,-2.91 -3.04,-5.83 -4.54,-8.74 l 664.39,153.38 c -2.64,1.97 -5.22,3.97 -7.98,5.86" /><path
         id="path312"
         style="fill:#00aaa4;fill-opacity:1;fill-rule:nonzero;stroke:none"
         d="m 2684.09,1190.28 -321.88,-74.31 c -0.92,-2.78 -1.85,-5.56 -2.72,-8.32 l 305.76,70.59 c 6.13,4.28 12.42,8.3 18.84,12.04" /><path
         id="path314"
         style="fill:#00aaa4;fill-opacity:1;fill-rule:nonzero;stroke:none"
         d="m 2870.44,1225.61 106.82,24.66 15.29,11.23 -144.51,-33.37 c 7.6,-0.49 15.08,-1.33 22.4,-2.52" /><path
         id="path316"
         style="fill:#00aaa4;fill-opacity:1;fill-rule:nonzero;stroke:none"
         d="m 2592.87,1099.95 -249.32,-57.56 c -0.48,-2.7 -0.92,-5.37 -1.34,-8.01 l 246.03,56.8 c 1.47,2.96 3.02,5.89 4.63,8.77" /><path
         id="path318"
         style="fill:#00aaa4;fill-opacity:1;fill-rule:nonzero;stroke:none"
         d="m 3099.75,1134.87 0.02,7.7 -353.53,-81.62 -0.17,-7.74 353.68,81.66" /><path
         id="path320"
         style="fill:#00aaa4;fill-opacity:1;fill-rule:nonzero;stroke:none"
         d="M 2568.54,1019.93 2337.2,966.516 c 0.08,-2.606 0.18,-5.184 0.34,-7.621 l 0,0 230.64,53.245 c 0.09,2.61 0.17,5.22 0.36,7.79" /><path
         id="path322"
         style="fill:#00aaa4;fill-opacity:1;fill-rule:nonzero;stroke:none"
         d="m 2575.26,952.199 -231.18,-53.371 c 0.37,-2.469 0.7,-5.012 1.1,-7.441 l 232.05,53.57 c -0.68,2.391 -1.34,4.797 -1.97,7.242" /><path
         id="path324"
         style="fill:#00aaa4;fill-opacity:1;fill-rule:nonzero;stroke:none"
         d="m 2744.51,983.574 355.11,81.986 0.01,7.7 -354.95,-81.948 -0.17,-7.738" /><path
         id="path326"
         style="fill:#00aaa4;fill-opacity:1;fill-rule:nonzero;stroke:none"
         d="m 2606.6,882.461 -246.19,-56.836 c 0.73,-2.41 1.47,-4.816 2.23,-7.184 l 249.07,57.504 c -1.76,2.114 -3.47,4.289 -5.11,6.516" /><path
         id="path328"
         style="fill:#00aaa4;fill-opacity:1;fill-rule:nonzero;stroke:none"
         d="m 2906.5,944.004 192.97,44.551 0.01,7.699 -192.95,-44.547 -0.03,-7.703" /><path
         id="path330"
         style="fill:#00aaa4;fill-opacity:1;fill-rule:nonzero;stroke:none"
         d="m 2895.24,872.129 204.1,47.117 0.02,7.699 -195.78,-45.199 c -2.73,-3.418 -5.49,-6.695 -8.34,-9.617" /><path
         id="path332"
         style="fill:#00aaa4;fill-opacity:1;fill-rule:nonzero;stroke:none"
         d="M 2683.89,831.031 2385.57,762.16 c 1.19,-2.328 2.41,-4.59 3.63,-6.859 l 312.06,72.043 c -6.05,0.968 -11.81,2.226 -17.37,3.687" /><path
         id="path334"
         style="fill:#00aaa4;fill-opacity:1;fill-rule:nonzero;stroke:none"
         d="m 3099.21,852.508 -670.1,-154.707 c 1.94,-2.172 3.97,-4.227 5.97,-6.317 l 664.12,153.321 0.01,7.703" /><path
         id="path336"
         style="fill:#00aaa4;fill-opacity:1;fill-rule:nonzero;stroke:none"
         d="m 2496.36,644.051 c 3.34,-1.863 6.75,-3.621 10.18,-5.344 l 581.41,134.227 c 3.7,3.414 7.28,6.664 11.13,10.265 L 2496.36,644.051" /><path
         id="path338"
         style="fill:#00aaa4;fill-opacity:1;fill-rule:nonzero;stroke:none"
         d="m 2930.2,1336.9 -6.18,-39.91 83.75,37.3 -77.57,2.61" /><path
         id="path340"
         style="fill:#00aaa4;fill-opacity:1;fill-rule:nonzero;stroke:none"
         d="m 2280.14,1100.02 -43.43,1.09 -6.18,-39.91 49.45,20.48 0.16,18.34" /><path
         id="path342"
         style="fill:#00aaa4;fill-opacity:1;fill-rule:nonzero;stroke:none"
         d="m 2605.52,687.215 -6.18,-39.914 83.76,37.297 -77.58,2.617" /><path
         id="path344"
         style="fill:#00aaa4;fill-opacity:1;fill-rule:nonzero;stroke:none"
         d="m 957.383,1224.62 -6.18,-39.91 83.757,37.29 -77.577,2.62" /><path
         id="path346"
         style="fill:#00aaa4;fill-opacity:1;fill-rule:nonzero;stroke:none"
         d="m 660.883,866.875 -6.18,-39.91 83.758,37.297 -77.578,2.613" /><path
         id="path348"
         style="fill:#00aaa4;fill-opacity:1;fill-rule:nonzero;stroke:none"
         d="m 241.727,1129.32 -6.18,-39.92 83.758,37.3 -77.578,2.62" /><path
         id="path350"
         style="fill:#00aaa4;fill-opacity:1;fill-rule:nonzero;stroke:none"
         d="m 3374.62,1489.29 c 9.16,-9.22 13.74,-20.35 13.74,-33.4 0,-13.15 -4.58,-24.35 -13.74,-33.62 -9.17,-9.26 -20.3,-13.89 -33.4,-13.89 -13.1,0 -24.23,4.63 -33.39,13.89 -9.12,9.27 -13.67,20.47 -13.67,33.62 0,13.05 4.58,24.18 13.74,33.4 9.21,9.26 20.32,13.89 33.32,13.89 13.05,0 24.18,-4.63 33.4,-13.89 z m 5.45,5.3 c -10.71,10.66 -23.66,15.99 -38.85,15.99 -15.09,0 -27.96,-5.33 -38.62,-15.99 -10.71,-10.71 -16.06,-23.61 -16.06,-38.7 0,-15.24 5.3,-28.21 15.91,-38.92 10.66,-10.76 23.58,-16.14 38.77,-16.14 15.19,0 28.14,5.38 38.85,16.14 10.71,10.76 16.06,23.73 16.06,38.92 0,15.14 -5.35,28.04 -16.06,38.7 z m -30.71,-36.16 c -2.24,-0.89 -5.6,-1.34 -10.08,-1.34 l -9.56,0 0,21.81 9.04,0 c 5.87,0 10.14,-0.74 12.81,-2.24 2.66,-1.5 4,-4.43 4,-8.82 0,-4.63 -2.07,-7.77 -6.21,-9.41 z m -30.25,-32.5 10.61,0 0,23.76 8.37,0 c 5.62,0 9.56,-0.65 11.8,-1.94 3.78,-2.24 5.68,-6.85 5.68,-13.82 l 0,-4.78 0.22,-1.94 c 0.05,-0.25 0.1,-0.48 0.15,-0.68 0.05,-0.2 0.1,-0.4 0.15,-0.6 l 9.93,0 -0.37,0.75 c -0.25,0.5 -0.42,1.55 -0.52,3.14 -0.1,1.59 -0.15,3.09 -0.15,4.48 l 0,4.41 c 0,3.04 -1.1,6.15 -3.29,9.34 -2.19,3.18 -5.65,5.15 -10.38,5.9 3.73,0.6 6.65,1.57 8.74,2.91 3.93,2.54 5.9,6.5 5.9,11.88 0,7.57 -3.11,12.65 -9.34,15.24 -3.49,1.45 -8.96,2.17 -16.43,2.17 l -21.07,0 0,-60.22" /></g></g></svg>