<?xml version="1.0" encoding="UTF-8"?><svg stroke-dasharray="none" shape-rendering="auto" xmlns="http://www.w3.org/2000/svg" font-family="'Dialog'" width="633" text-rendering="auto" fill-opacity="1" contentScriptType="text/ecmascript" color-interpolation="auto" color-rendering="auto" preserveAspectRatio="xMidYMid meet" font-size="12" viewBox="0 0 633 388" fill="black" xmlns:xlink="http://www.w3.org/1999/xlink" stroke="black" image-rendering="auto" stroke-miterlimit="10" zoomAndPan="magnify" version="1.0" stroke-linecap="square" stroke-linejoin="miter" contentStyleType="text/css" font-style="normal" height="388" stroke-width="1" stroke-dashoffset="0" font-weight="normal" stroke-opacity="1">
<!--Generated by the Batik Graphics2D SVG Generator-->
<defs id="genericDefs"/>
<g>
<defs id="defs1">
<clipPath clipPathUnits="userSpaceOnUse" id="clipPath1">
<path d="M259 80 L393 80 L393 120 L259 120 L259 80 Z"/>
</clipPath>
<clipPath clipPathUnits="userSpaceOnUse" id="clipPath2">
<path d="M270 84 L379 84 L379 100 L270 100 L270 84 Z"/>
</clipPath>
<clipPath clipPathUnits="userSpaceOnUse" id="clipPath3">
<path d="M260 100 L389 100 L389 115 L260 115 L260 100 Z"/>
</clipPath>
<clipPath clipPathUnits="userSpaceOnUse" id="clipPath4">
<path d="M200 8 L311 8 L311 36 L200 36 L200 8 Z"/>
</clipPath>
<clipPath clipPathUnits="userSpaceOnUse" id="clipPath5">
<path d="M211 12 L298 12 L298 28 L211 28 L211 12 Z"/>
</clipPath>
<clipPath clipPathUnits="userSpaceOnUse" id="clipPath6">
<path d="M343 8 L492 8 L492 36 L343 36 L343 8 Z"/>
</clipPath>
<clipPath clipPathUnits="userSpaceOnUse" id="clipPath7">
<path d="M354 12 L478 12 L478 28 L354 28 L354 12 Z"/>
</clipPath>
<clipPath clipPathUnits="userSpaceOnUse" id="clipPath8">
<path d="M259 164 L398 164 L398 204 L259 204 L259 164 Z"/>
</clipPath>
<clipPath clipPathUnits="userSpaceOnUse" id="clipPath9">
<path d="M270 168 L384 168 L384 184 L270 184 L270 168 Z"/>
</clipPath>
<clipPath clipPathUnits="userSpaceOnUse" id="clipPath10">
<path d="M260 184 L394 184 L394 199 L260 199 L260 184 Z"/>
</clipPath>
<clipPath clipPathUnits="userSpaceOnUse" id="clipPath11">
<path d="M56 337 L182 337 L182 379 L56 379 L56 337 Z"/>
</clipPath>
<clipPath clipPathUnits="userSpaceOnUse" id="clipPath12">
<path d="M81 341 L154 341 L154 357 L81 357 L81 341 Z"/>
</clipPath>
<clipPath clipPathUnits="userSpaceOnUse" id="clipPath13">
<path d="M63 358 L173 358 L173 374 L63 374 L63 358 Z"/>
</clipPath>
<clipPath clipPathUnits="userSpaceOnUse" id="clipPath14">
<path d="M57 357 L178 357 L178 374 L57 374 L57 357 Z"/>
</clipPath>
<clipPath clipPathUnits="userSpaceOnUse" id="clipPath15">
<path d="M253 337 L394 337 L394 379 L253 379 L253 337 Z"/>
</clipPath>
<clipPath clipPathUnits="userSpaceOnUse" id="clipPath16">
<path d="M280 341 L365 341 L365 357 L280 357 L280 341 Z"/>
</clipPath>
<clipPath clipPathUnits="userSpaceOnUse" id="clipPath17">
<path d="M260 358 L385 358 L385 374 L260 374 L260 358 Z"/>
</clipPath>
<clipPath clipPathUnits="userSpaceOnUse" id="clipPath18">
<path d="M254 357 L390 357 L390 374 L254 374 L254 357 Z"/>
</clipPath>
<clipPath clipPathUnits="userSpaceOnUse" id="clipPath19">
<path d="M8 277 L93 277 L93 317 L8 317 L8 277 Z"/>
</clipPath>
<clipPath clipPathUnits="userSpaceOnUse" id="clipPath20">
<path d="M19 281 L79 281 L79 297 L19 297 L19 281 Z"/>
</clipPath>
<clipPath clipPathUnits="userSpaceOnUse" id="clipPath21">
<path d="M9 297 L89 297 L89 312 L9 312 L9 297 Z"/>
</clipPath>
<clipPath clipPathUnits="userSpaceOnUse" id="clipPath22">
<path d="M367 277 L532 277 L532 319 L367 319 L367 277 Z"/>
</clipPath>
<clipPath clipPathUnits="userSpaceOnUse" id="clipPath23">
<path d="M380 281 L515 281 L515 297 L380 297 L380 281 Z"/>
</clipPath>
<clipPath clipPathUnits="userSpaceOnUse" id="clipPath24">
<path d="M373 298 L522 298 L522 314 L373 314 L373 298 Z"/>
</clipPath>
<clipPath clipPathUnits="userSpaceOnUse" id="clipPath25">
<path d="M368 297 L528 297 L528 314 L368 314 L368 297 Z"/>
</clipPath>
<clipPath clipPathUnits="userSpaceOnUse" id="clipPath26">
<path d="M164 277 L287 277 L287 319 L164 319 L164 277 Z"/>
</clipPath>
<clipPath clipPathUnits="userSpaceOnUse" id="clipPath27">
<path d="M183 281 L265 281 L265 297 L183 297 L183 281 Z"/>
</clipPath>
<clipPath clipPathUnits="userSpaceOnUse" id="clipPath28">
<path d="M170 298 L277 298 L277 314 L170 314 L170 298 Z"/>
</clipPath>
<clipPath clipPathUnits="userSpaceOnUse" id="clipPath29">
<path d="M165 297 L283 297 L283 314 L165 314 L165 297 Z"/>
</clipPath>
<clipPath clipPathUnits="userSpaceOnUse" id="clipPath30">
<path d="M534 337 L624 337 L624 379 L534 379 L534 337 Z"/>
</clipPath>
<clipPath clipPathUnits="userSpaceOnUse" id="clipPath31">
<path d="M545 341 L610 341 L610 357 L545 357 L545 341 Z"/>
</clipPath>
<clipPath clipPathUnits="userSpaceOnUse" id="clipPath32">
<path d="M540 358 L612 358 L612 374 L540 374 L540 358 Z"/>
</clipPath>
<clipPath clipPathUnits="userSpaceOnUse" id="clipPath33">
<path d="M535 357 L620 357 L620 374 L535 374 L535 357 Z"/>
</clipPath>
<clipPath clipPathUnits="userSpaceOnUse" id="clipPath34">
<path d="M-1 -1 L634 -1 L634 389 L-1 389 L-1 -1 Z"/>
</clipPath>
<clipPath clipPathUnits="userSpaceOnUse" id="clipPath35">
<path d="M318 113 L332 113 L332 127 L318 127 L318 113 Z"/>
</clipPath>
<clipPath clipPathUnits="userSpaceOnUse" id="clipPath36">
<path d="M403 29 L418 29 L418 43 L403 43 L403 29 Z"/>
</clipPath>
<clipPath clipPathUnits="userSpaceOnUse" id="clipPath37">
<path d="M252 29 L267 29 L267 44 L252 44 L252 29 Z"/>
</clipPath>
<clipPath clipPathUnits="userSpaceOnUse" id="clipPath38">
<path d="M322 196 L336 196 L336 210 L322 210 L322 196 Z"/>
</clipPath>
</defs>
<g font-size="11" fill="white" font-family="'Tahoma'" stroke-linejoin="round" stroke="white" stroke-width="0" stroke-miterlimit="0">
<rect x="261" y="82" clip-path="url(#clipPath1)" width="127" height="32" stroke="none"/>
<rect x="261" y="82" clip-path="url(#clipPath1)" width="127" height="32" stroke="none"/>
</g>
<g font-size="11" font-family="'Tahoma'" stroke-linejoin="round" font-style="italic" font-weight="bold" stroke-width="0" stroke-miterlimit="0">
<text xml:space="preserve" x="271" y="96" clip-path="url(#clipPath2)" stroke="none">ValueSpecification</text>
</g>
<g font-size="11" stroke-width="1.1827" font-family="'Tahoma'" stroke-linecap="butt">
<line clip-path="url(#clipPath3)" fill="none" x1="261" x2="387" y1="101" y2="101"/>
<rect x="260" y="81" clip-path="url(#clipPath1)" fill="none" width="127" height="32"/>
<rect x="202" y="10" clip-path="url(#clipPath4)" fill="white" width="104" height="20" stroke="none"/>
<rect x="202" y="10" clip-path="url(#clipPath4)" fill="white" width="104" height="20" stroke="none"/>
<text x="212" y="24" clip-path="url(#clipPath5)" font-style="italic" stroke="none" font-weight="bold" xml:space="preserve">TypedElement</text>
<rect x="201" y="9" clip-path="url(#clipPath4)" fill="none" width="104" height="20"/>
<rect x="345" y="10" clip-path="url(#clipPath6)" fill="white" width="142" height="20" stroke="none"/>
<rect x="345" y="10" clip-path="url(#clipPath6)" fill="white" width="142" height="20" stroke="none"/>
<text x="355" y="24" clip-path="url(#clipPath7)" font-style="italic" stroke="none" font-weight="bold" xml:space="preserve">PackageableElement</text>
<rect x="344" y="9" clip-path="url(#clipPath6)" fill="none" width="142" height="20"/>
<rect x="261" y="166" clip-path="url(#clipPath8)" fill="white" width="132" height="32" stroke="none"/>
<rect x="261" y="166" clip-path="url(#clipPath8)" fill="white" width="132" height="32" stroke="none"/>
<text x="271" y="180" clip-path="url(#clipPath9)" font-style="italic" stroke="none" font-weight="bold" xml:space="preserve">LiteralSpecification</text>
<line clip-path="url(#clipPath10)" fill="none" x1="261" x2="392" y1="185" y2="185"/>
<rect x="260" y="165" clip-path="url(#clipPath8)" fill="none" width="132" height="32"/>
<rect x="58" y="339" clip-path="url(#clipPath11)" fill="white" width="119" height="34" stroke="none"/>
<rect x="58" y="339" clip-path="url(#clipPath11)" fill="white" width="119" height="34" stroke="none"/>
<text x="82" y="353" clip-path="url(#clipPath12)" stroke="none" font-weight="bold" xml:space="preserve">LiteralString</text>
<text xml:space="preserve" x="64" y="370" clip-path="url(#clipPath13)" stroke="none">+ value : String [0..1]</text>
<line clip-path="url(#clipPath14)" fill="none" x1="58" x2="176" y1="358" y2="358"/>
<rect x="57" y="338" clip-path="url(#clipPath11)" fill="none" width="119" height="34"/>
<rect x="255" y="339" clip-path="url(#clipPath15)" fill="white" width="134" height="34" stroke="none"/>
<rect x="255" y="339" clip-path="url(#clipPath15)" fill="white" width="134" height="34" stroke="none"/>
<text x="281" y="353" clip-path="url(#clipPath16)" stroke="none" font-weight="bold" xml:space="preserve">LiteralBoolean</text>
<text xml:space="preserve" x="261" y="370" clip-path="url(#clipPath17)" stroke="none">+ value : Boolean = false</text>
<line clip-path="url(#clipPath18)" fill="none" x1="255" x2="388" y1="358" y2="358"/>
<rect x="254" y="338" clip-path="url(#clipPath15)" fill="none" width="134" height="34"/>
<rect x="10" y="279" clip-path="url(#clipPath19)" fill="white" width="78" height="32" stroke="none"/>
<rect x="10" y="279" clip-path="url(#clipPath19)" fill="white" width="78" height="32" stroke="none"/>
<text x="20" y="293" clip-path="url(#clipPath20)" stroke="none" font-weight="bold" xml:space="preserve">LiteralNull</text>
<line clip-path="url(#clipPath21)" fill="none" x1="10" x2="87" y1="298" y2="298"/>
<rect x="9" y="278" clip-path="url(#clipPath19)" fill="none" width="78" height="32"/>
<rect x="369" y="279" clip-path="url(#clipPath22)" fill="white" width="158" height="34" stroke="none"/>
<rect x="369" y="279" clip-path="url(#clipPath22)" fill="white" width="158" height="34" stroke="none"/>
<text x="381" y="293" clip-path="url(#clipPath23)" stroke="none" font-weight="bold" xml:space="preserve">LiteralUnlimitedNatural</text>
<text xml:space="preserve" x="374" y="310" clip-path="url(#clipPath24)" stroke="none">+ value : UnlimitedNatural = 0</text>
<line clip-path="url(#clipPath25)" fill="none" x1="369" x2="526" y1="298" y2="298"/>
<rect x="368" y="278" clip-path="url(#clipPath22)" fill="none" width="158" height="34"/>
<rect x="166" y="279" clip-path="url(#clipPath26)" fill="white" width="116" height="34" stroke="none"/>
<rect x="166" y="279" clip-path="url(#clipPath26)" fill="white" width="116" height="34" stroke="none"/>
<text x="184" y="293" clip-path="url(#clipPath27)" stroke="none" font-weight="bold" xml:space="preserve">LiteralInteger</text>
<text xml:space="preserve" x="171" y="310" clip-path="url(#clipPath28)" stroke="none">+ value : Integer = 0</text>
<line clip-path="url(#clipPath29)" fill="none" x1="166" x2="281" y1="298" y2="298"/>
<rect x="165" y="278" clip-path="url(#clipPath26)" fill="none" width="116" height="34"/>
<rect x="536" y="339" clip-path="url(#clipPath30)" fill="white" width="83" height="34" stroke="none"/>
<rect x="536" y="339" clip-path="url(#clipPath30)" fill="white" width="83" height="34" stroke="none"/>
<text x="546" y="353" clip-path="url(#clipPath31)" stroke="none" font-weight="bold" xml:space="preserve">LiteralReal</text>
<text xml:space="preserve" x="541" y="370" clip-path="url(#clipPath32)" stroke="none">+ value : Real</text>
<line clip-path="url(#clipPath33)" fill="none" x1="536" x2="618" y1="358" y2="358"/>
<rect x="535" y="338" clip-path="url(#clipPath30)" fill="none" width="83" height="34"/>
<line clip-path="url(#clipPath34)" fill="none" x1="324" x2="324" y1="165" y2="114"/>
<polygon fill="white" clip-path="url(#clipPath35)" points=" 324 114 329 124 319 124" stroke="none"/>
<polygon fill="none" clip-path="url(#clipPath35)" points=" 324 114 329 124 319 124"/>
<line clip-path="url(#clipPath34)" fill="none" x1="346" x2="416" y1="81" y2="30"/>
<polygon fill="white" clip-path="url(#clipPath36)" points=" 416 30 410 40 405 32" stroke="none"/>
<polygon fill="none" clip-path="url(#clipPath36)" points=" 416 30 410 40 405 32"/>
<line clip-path="url(#clipPath34)" fill="none" x1="303" x2="253" y1="81" y2="30"/>
<polygon fill="white" clip-path="url(#clipPath37)" points=" 253 30 264 34 257 41" stroke="none"/>
<polygon fill="none" clip-path="url(#clipPath37)" points=" 253 30 264 34 257 41"/>
<line clip-path="url(#clipPath34)" fill="none" x1="324" x2="324" y1="338" y2="247"/>
<line clip-path="url(#clipPath34)" fill="none" x1="324" x2="328" y1="247" y2="247"/>
<line clip-path="url(#clipPath34)" fill="none" x1="328" x2="328" y1="247" y2="198"/>
<polygon fill="white" clip-path="url(#clipPath38)" points=" 328 198 333 208 323 208" stroke="none"/>
<polygon fill="none" clip-path="url(#clipPath38)" points=" 328 198 333 208 323 208"/>
<line clip-path="url(#clipPath34)" fill="none" x1="122" x2="122" y1="338" y2="247"/>
<line clip-path="url(#clipPath34)" fill="none" x1="122" x2="328" y1="247" y2="247"/>
<line clip-path="url(#clipPath34)" fill="none" x1="328" x2="328" y1="247" y2="198"/>
<polygon fill="white" clip-path="url(#clipPath38)" points=" 328 198 333 208 323 208" stroke="none"/>
<polygon fill="none" clip-path="url(#clipPath38)" points=" 328 198 333 208 323 208"/>
<line clip-path="url(#clipPath34)" fill="none" x1="49" x2="49" y1="278" y2="247"/>
<line clip-path="url(#clipPath34)" fill="none" x1="49" x2="328" y1="247" y2="247"/>
<line clip-path="url(#clipPath34)" fill="none" x1="328" x2="328" y1="247" y2="198"/>
<polygon fill="white" clip-path="url(#clipPath38)" points=" 328 198 333 208 323 208" stroke="none"/>
<polygon fill="none" clip-path="url(#clipPath38)" points=" 328 198 333 208 323 208"/>
<line clip-path="url(#clipPath34)" fill="none" x1="453" x2="453" y1="278" y2="247"/>
<line clip-path="url(#clipPath34)" fill="none" x1="453" x2="328" y1="247" y2="247"/>
<line clip-path="url(#clipPath34)" fill="none" x1="328" x2="328" y1="247" y2="198"/>
<polygon fill="white" clip-path="url(#clipPath38)" points=" 328 198 333 208 323 208" stroke="none"/>
<polygon fill="none" clip-path="url(#clipPath38)" points=" 328 198 333 208 323 208"/>
<line clip-path="url(#clipPath34)" fill="none" x1="223" x2="223" y1="278" y2="247"/>
<line clip-path="url(#clipPath34)" fill="none" x1="223" x2="328" y1="247" y2="247"/>
<line clip-path="url(#clipPath34)" fill="none" x1="328" x2="328" y1="247" y2="198"/>
<polygon fill="white" clip-path="url(#clipPath38)" points=" 328 198 333 208 323 208" stroke="none"/>
<polygon fill="none" clip-path="url(#clipPath38)" points=" 328 198 333 208 323 208"/>
<line clip-path="url(#clipPath34)" fill="none" x1="577" x2="577" y1="338" y2="247"/>
<line clip-path="url(#clipPath34)" fill="none" x1="577" x2="328" y1="247" y2="247"/>
<line clip-path="url(#clipPath34)" fill="none" x1="328" x2="328" y1="247" y2="198"/>
<polygon fill="white" clip-path="url(#clipPath38)" points=" 328 198 333 208 323 208" stroke="none"/>
<polygon fill="none" clip-path="url(#clipPath38)" points=" 328 198 333 208 323 208"/>
</g>
</g>
</svg>